A ::= a b c d e f g "(" h "[" "]" b ")" c H "}" "}" (a b O c (N Q b ";")* (b "(" J ")" c (N Q b ";")* H* "}")* (K N Q b "(" J ")" c (N Q b ";")* H* l I ";" "}")* "}")* $

Q ::= "[" "]" | ^

H ::= c H* "}" | q "(" I ")" H R | s "(" I ")" H | t "(" I ")" ";" | b S 

R ::= r H | ^

S ::= "=" I ";" | "[" I "]" "=" I ";" 

I ::= v P | w P | x P | y P | b P | z P | # T | "!" I P| "(" I ")" P

T ::= N "[" I "]" P | b "(" M ")" P

P ::= L I P| "[" I "]" P | "." U | ^

U ::= b "(" M ")" P | u P

J ::= N Q b ("," N Q b)* | ^

K ::= d | j | k

L ::= "&&" | "||" | "==" | "!=" | ">" V | "<" V | "+" | "-" | "*" | "/"

V ::= "=" | ^

M ::= I ("," I)* | ^

N ::= m | o | h | p | n

O ::= i b | ^